<?xml version="1.0" encoding="UTF-8" standalone="no"?>
<!-- Created with Inkscape (http://www.inkscape.org/) -->

<svg
   xmlns:dc="http://purl.org/dc/elements/1.1/"
   xmlns:cc="http://creativecommons.org/ns#"
   xmlns:rdf="http://www.w3.org/1999/02/22-rdf-syntax-ns#"
   xmlns:svg="http://www.w3.org/2000/svg"
   xmlns="http://www.w3.org/2000/svg"
   xmlns:xlink="http://www.w3.org/1999/xlink"
   xmlns:sodipodi="http://sodipodi.sourceforge.net/DTD/sodipodi-0.dtd"
   xmlns:inkscape="http://www.inkscape.org/namespaces/inkscape"
   width="100"
   height="100"
   id="svg2"
   sodipodi:version="0.32"
   inkscape:version="0.47 r22583"
   sodipodi:docname="busywidget.svgz"
   inkscape:output_extension="org.inkscape.output.svgz.inkscape"
   version="1.0">
  <sodipodi:namedview
     id="base"
     pagecolor="#a8a8a8"
     bordercolor="#666666"
     borderopacity="1.0"
     gridtolerance="10000"
     guidetolerance="10"
     objecttolerance="10"
     inkscape:pageopacity="1"
     inkscape:pageshadow="2"
     inkscape:zoom="2.3278748"
     inkscape:cx="100.81329"
     inkscape:cy="-2.2183978"
     inkscape:document-units="px"
     inkscape:current-layer="layer1"
     showgrid="true"
     inkscape:window-width="1112"
     inkscape:window-height="648"
     inkscape:window-x="560"
     inkscape:window-y="0"
     inkscape:window-maximized="0">
    <inkscape:grid
       type="xygrid"
       id="grid2842"
       empspacing="5"
       visible="true"
       enabled="true"
       snapvisiblegridlinesonly="true" />
  </sodipodi:namedview>
  <defs
     id="defs4">
    <inkscape:perspective
       sodipodi:type="inkscape:persp3d"
       inkscape:vp_x="0 : 50 : 1"
       inkscape:vp_y="0 : 1000 : 0"
       inkscape:vp_z="100 : 50 : 1"
       inkscape:persp3d-origin="50 : 33.333333 : 1"
       id="perspective22" />
  </defs>
  <metadata
     id="metadata7">
    <rdf:RDF>
      <cc:Work
         rdf:about="">
        <dc:format>image/svg+xml</dc:format>
        <dc:type
           rdf:resource="http://purl.org/dc/dcmitype/StillImage" />
        <dc:title />
      </cc:Work>
    </rdf:RDF>
  </metadata>
  <g
     inkscape:label="Layer 1"
     inkscape:groupmode="layer"
     id="layer1">
    <rect
       style="fill:#60a500;fill-opacity:1;fill-rule:nonzero;stroke:none"
       id="hint-rotation-angle"
       width="15"
       height="8.5051775"
       x="13.061523"
       y="120" />
    <g
       id="busywidget">
      <rect
         style="fill:#49a64f;fill-opacity:0;stroke:none"
         id="rect3600"
         width="130"
         height="130"
         x="-15"
         y="-15" />
      <image
         xlink:href="data:image/png;base64,iVBORw0KGgoAAAANSUhEUgAAAHQAAAB2CAYAAAAZUrcsAAAABHNCSVQICAgIfAhkiAAAAAlwSFlz AAAN1wAADdcBQiibeAAAABl0RVh0U29mdHdhcmUAd3d3Lmlua3NjYXBlLm9yZ5vuPBoAABBiSURB VHic7V3bdhPLDiw7JkDCnc3ev+ZP9K8dYAPnkJB7fB6my11Tox6PE5vg9mgtrYmvSVyWWi2V1JPF YoHaZT6fT4Y8b7FYLHf9t+xaJjUCGgBYuh0B2Lpv30CuDlADc4IMnv7M2w7Wcs31jwd49tR/wDZF wJwEOkUXVJWlaXjffD5fveBPBLcaQAtgTkWP0AZVgVXQ7u3qP//R4FYDaBIH8sh0Jo9FgN4PVAd3 yS/UUwNbBaCBdRLMGYBnorOktFaKgnlX0Hu76ms6VvtUwFYBaBK3ToL5XPQ4qVoq0IBBsG579E6u DjIBBvB0wNYEKNC1zmMALwC8BHCSfn6BbK10vQSUgN0Eep2ut3JVcO/kvQjsb3fFew9o+sA8EFLr fAngVdLTdJugHqENgoJ5LXplt6l8roM7ga21vwvYvQdUxNdPBfQUwJukp2is9Tma/5/rrwKqQF4B uLQrf1awFdhbdNdaIAG7S1BrAhQou9xTAK8BvEUG9SWylQIZAAf0MumFXC/kfqpa8REaUGmpvAI7 ttaaAHW3q1bqoL5G10q5jqrLdUCpv0T1frXgm/R30BUD7T0tdmGtNQEKdAF1UE+QgT1FXksZ7aqV 3iCDc4UumOdyPUcb4Fl6DSPpm/R3KbCrtXWboNYCaJS/1eQCg6RjZHBfJj1GNzhitKsBEC1VrfMM DZhnSbk9eoYM7CW6oHL/CmwZ1On6p+y1lBIOBNmB5vbmFE1U/BbAOwDvAXwE8BeATwD+TvqP/Pwp Pf4hPf8t2pE1gdbExioFObTEt05qATSqmnh+1rNArQwP4oQEI+TXaIKpd2gAi8Cl/pUef5+eT/fO 7RITGzsBtRZAKQ6iJgp0G6LBjkanGsDQomnBCm7Jaj8hW6qD+grZUh3UVW75saDWsoYC2dLUGgkk o9RfaD5QblUI+DHaud6oOnOEdvTsaUVXfc8jBODJe3O/CjxyTa0JUCC7UbVMRqhnyBHtMj3Ox47R zvN6Ip/qwGry/9g0KgjwPaISHiBR8ENBrQlQd7UKpuZu79NjF8jrmkanCoj+7JUaumMNsp4F6hYa 1WL97wceCOreA7pYLJapsuHbDrrbC+QP8h7ZBTuYWo1Z50b1CzJN90cRtFu4uly3TgXuPrhvkOw9 oCJRMHSFNiGMVvsLGUwF0cHkflWv+joFVgF2EBXM6G922gvS/7GxldYMqFqBpvWu0F3rfP0jmFp6 45U/6zaErlet1SkwfbQX19t0nWBDUKsANLldr0VS+CER0Et0AxZd89RKFVAmHFQJrgI7Se/5AsM5 TBGPqWWpQz+LKgAVUbflCXFGvVzj/Bpljphc8AzSKzRrMzNBXmelCy7tKZWfdGe33Vq5Px1Unakm sSD/rGeGNLGg+VjmYH8C+B+A/wL4kfQbgH+TfgHwWfQ/ST+nx74B+J7e4yy9P13mEZovxwka8N+g SQm+R046aIrQXTi3OQCGJR2qslBzvUDblXFNu0V7jdMcLy0rSh5EJTMvlzHTdIJ2NugY5TRkxFeK iuODXG81FkopWKpaa0Qz0VSgVlJovWq5X9FYpupXNNb8HY2l01Jv0u9msEQ6DC2V+gbdRD6rQJqM WGulVVkohaCKtRLkSc81stgjNKDM0M4FRzwjpaDoesiEBUEtfblU1Wr1vaL2jZZU19vSJ2uamCKy mRfKNVHvlRgttXFtJN3lBbLx3CKnIt3qaek/0HiGc2TuEgFeAliWAqQqLbQkwYewFJBXESXaXKA7 NID6eufWFFmUCkE9QmO1nm9Wdavve9+WHBSgkRjIGlTRUqO12AnXWmMtfej8snCb9ByZFeElPS3r 6e9hYaGYbDh4QF1k/QX6ge3re1FR9z1BziQ9Q2O1TkjzCFo9AX9HcS2tLsrdliwWC65T0b6WlkUA ztGOiL8n/YEm6uUe9QINOPyiEFRPWrxCZvp7zri3GD5a6BoxiwXi9FyfVUZdcLrfVTaEk9Boqbqe 9lrpaKEDpcda1V0yA/UTjWVSGbWepedcIacmSQhnepH7UeaPe3lILiOgG0hPepGRKkFlUkJBVUCZ dFgir6fOOnRimbtdAJi42x0B3VDW5Ix9XT1DA6Qq19JrZCul69X1VEt1JWJZR0ZAHyAFUL0IoO6X AdNPdK2UqUFuZbwGy4J6kdOrMgL6QFnjfrmuOqjUc8RWqq5Xi+hRIT0kmo2APkIGrqmkj56JElC1 UhbGlcVPjWih4fZlBPSRYtmade6XYLK5iYBGVqo0GGUl+n50tNAdSbStiSzVAWV6j8kGtVIFs2Sh I6DbFnO9TiVVfrC2IRLQK+SEAYncDJAU1KLLhWxfRkC3JMF6yoR6lKtV1gPztWQmcF/q3KYIUJ+3 NAK6Ayk1TK1LwKvb5VrqxO+Syx2Dol1IIUCK6p5eJmNgpNwnrqV9vTKjhf4mUZKa0018soq2MjLx T0AJatQr45HuBNig2jKEQvjUc+7+BDHmobpeBdV7VbWQTSNTUAeBCfQAOmCIsMvSX3PgAJeqM9Ec JJbHSHcB4hECXoJrgTmfzycdlzufzzWD74Qpr+/5/S2fvq25AfsmhW1MyUqdOajjAoCYsObWGQdF BiRf5ONJI40A3kqLeQUSRbwlK42IYUAXvCiP296HFgYIlyaGlKKvsAfyEEEtRLyeFvSZD+6CFdiI FaFXAN0oV12sdyZ7flHVO51HUBvxxiOf+OnJBm+z8GEe0fSWlsyAzkRL9dfeleUNNB7BUclnBR7R jVyR9JXYWAznmLp7NJ/xPWJKp7MLW59ryUJ1+OFztEeqcV4emeEc2bKW/3LAVsqrutw+HhLZDayd aiJfAyfvhcUsWDuV+k9aBKvodK06s8BHxyho6mrW9mVULFF+V62TjcJ3aD7HWXrNNXItlXnfTluE aCYboe1udd3U3kb2NX5MqmPQdGLWIP5L7SJMwVJulz0uyufV3tRvaDMGyXIoWqkmFjwg0vHedLU6 wRLpTUm18DGl3iJw6BYauVw9zOAWjXWyjZD3qSVrUdytFEC8hkYWyonQnHX3AXn82Yd0vw4WZmWg swk+0HUU6NZJFag+C9WeU3J63UJXoNJCPcr1idDqdk/RAMZu6Iv0/CW6+6sZ8ljRQwUSiPO62jND F6zbPiCeVegs+hWYi8ViWbLQdaC+RdyB7P0YmkE6SFlT+I4iXc57UHI23a23/ncSDp6c99Sfb18I 7EvkuersnbxMj52jvHU59HWU174JLVN7jbcxRq2LqwbgkuVESYZoIvQJ2gzv0pStTiH2kKSH7um8 Iz2sQJMKkasNM0YOaJR9iNxwNKCpRGYaA6O2+BbGDy4YkrDvrJ18874Cd2fTiq4rpvvwGXmDCE2H JMEgD6A7BkCvkOf4dQWg15yn9iSv35W6kzU9GLHT+jikh5wGLNVKh66VKwykIbklM6FMAF0wlQ9T qtF5Wa1vovOYZEDbqsxiB7+uJOpyo/C6dEKfkplKI7t1QjSDow5l4sBpKlun6bjLLU370NP5mKWg /1fKoc+aVVCjEd2jbFmiKLePLuERV0QM9gabaAsTMSVG2YL4JhboD6edzOSA+qlFpa3MaKU7kj4L 1fEt0d7IG2y8WVWHPkQ0/tFKdyBToFO3K/FIlcLvVqqDH5geLGWQ1EoPem+6Cxm6hkbMNG+w8fEs p3KNpnlsNDZ0lGHSB2jUiew5Rj1aaoouB0lHeEeTsUZQtywrQDfsb1TXq26Xw/M5GctHnUUHuhXn BYyyuZQsNAqMSr2NBNXdLgElKzCa2DyyA7csUfnM19GorVxJwRrxMjhiYMThwFQdexZZ6gjqI6VU D/V1NGop1+GCPsnDj2dUUKPzNJ3EPYL6QGkBGmxf+ugSVILqVqqA9g3MH9fULUqfhTo9ws/hdFAZ 9S5RPq+Es9jJ41UekjMFR1AfIKUCd99+lNTDEzQEpih6pT5HY4k+0jvqpgKyu6ULJzufJxAeehPx WulY6IYjRHXUWTSQ0M8qeYf45AQ9WUhzvx0KizUkj2IyhIJScrvnKCfh9ZjFY3kfXlUiQto0/S72 e2hvzD2QJ0yPFtuWENDgtD+n8POYY+0RLc3S4e9wfhIQt5u7OkFqou8lo8NHcDFsCorvSWmlEUOh BOizzruWwdQ1WAsBXFd1DW71SZboHIcEdO/JStIIrFQTlsheIZ+09xFNr4v2u7xFbpsgQ5Dnd2o/ 5A+7+kxZ7WRWUPWwt4ihqCC2AK0Z4KEW6hGvWmnfQeI+OeUYZRJ3RDZTUKPZA8qK6wO2dZtBVY3A 9vacBJTD0hbGz+CkpenkZq5/TDrQwj+gsepPprT2UkSs2yU/Tzs6of4g9rdDJ4nRQhl13qC89pWG I02Qex95Wp9Py9KeVGU+6DhSHybhbES32siKV3MfamMeru0KC8azRG3lv9BeE1WjkxBYmWF6kN3h XIs/AfgbwD/p6lbLHlXNPNF6vQDQdzpRdZY6yELTNoY36Xp9LdQ9ZGniMl03A6Wj9LOPz9FmqFO0 hwYzzejBkp8WeCNXVXoZoMIJLZselaXuiqAyAaAAdlof5PW6LnsSQtsqFFACqRUen2apwOp9Otwp 4jAxtViF6x0MaKFlgq7XO8AjEL1P5gQZ1Klco35UZUr42dcKqp6+y+WA6vOVNC6opjVjIws119uZ kYOYa6sRctSMwzXOM0S65/UDU0tgKplNq0L8svDviRqwqpCHnk6opGwgV0ii4MJrq34iPJXrKq3U u8eVIxyx+SMwz5DB9L20T2jBfD7f+73pxoBanhfIH5JLxPP16c4ezOjp8D5v8B7do479xHsvwnNI FtDmR3HLo2v9XgNJeZCFFkBVKRG3FVAPXK5RHi/nwEbtjlre4ywl1lM5A+hS3rvKJuSHutyoIlOS dc1PviYqgyGaSBZ1zDE4Y6aIg5vukCd29ZHSqgH1UeNmClze0jFROlzpXwBfkn5O+gXA1/QYhy0x fahVFwYy3kWuh9Z4WS9qPq4OTGAL84N6ThVStqBPnHRQS8D6rDuljvrwJaBdGYpyuJ4lUjCrAHYr A6EGgqqJfKYIv6EB73OgBJpj0nhIuY4dHVqJ8SpMFQFQJA9eQ10KgZJ/iMp+KPF9z9E+4bavqsLE Pq2NXyJvqirNxivWTPdVtgYoEJ5Z4hmjda2Kun9UMP1wVF0Xuc/k79UJoUpe06GHa0d976tsFVCg mCIsbWNKoDI5793gpdqnjlRjxKsuXpP6fpRGVaBuHVCgOGTJeUCaJfLxaM/RgOBHLvrsBi+LIb03 58xqMObndfbxg/dWdgIopeCCeXuKbnJghrzd8eNEmAIsHTHibpf8JVqqMvwjK61CdgooEForge1z wTM0H7wC5oe6RTQTTXQ4Vcbdrs+bDSdz7ZvsHFBKwQ0rgZpRqo5tvUY7UV9S7j25dnvnnA/9GF3u tkSA1bu1j4VtFARV58iWyNhRXjbK9WohwLcwVUgvL/d3iPF5JoF6lqekETtCLXXQAOF9l99uoS49 ayyQrTaitkyD+yKmhGauShzeauTJLTSSwGp5deCi+1wU1DAFWIt1An8ooCo94EZXfZ6n9TzfDKAu MIE9ANRl4MnDmqlSad2uDUxgDwGNZChRukYAXf4PccLPK+LDbrsAAAAASUVORK5CYII= "
         width="120"
         height="120"
         id="image3614"
         x="-10"
         y="-10"
         style="opacity:0.8" />
      <g
         style="fill:#ffffff;fill-opacity:1"
         id="g3608"
         transform="matrix(1.0315683,0,0,1.0089619,123.68761,18.326753)">
        <path
           style="font-size:medium;font-style:normal;font-variant:normal;font-weight:normal;font-stretch:normal;text-indent:0;text-align:start;text-decoration:none;line-height:normal;letter-spacing:normal;word-spacing:normal;text-transform:none;direction:ltr;block-progression:tb;writing-mode:lr-tb;text-anchor:start;color:#000000;fill:#ffffff;fill-opacity:1;stroke:none;stroke-width:3.05620646;marker:none;visibility:visible;display:inline;overflow:visible;enable-background:accumulate;font-family:Bitstream Vera Sans;-inkscape-font-specification:Bitstream Vera Sans"
           d="m -71.432611,-18.163938 0,11.2029454 c 22.367168,0 39.50753,17.8857646 39.50753,38.4100976 l 8.962356,0 c 0,-28.0769291 -22.235789,-49.613043 -48.469886,-49.613043 z"
           id="path2840" />
        <path
           style="font-size:medium;font-style:normal;font-variant:normal;font-weight:normal;font-stretch:normal;text-indent:0;text-align:start;text-decoration:none;line-height:normal;letter-spacing:normal;word-spacing:normal;text-transform:none;direction:ltr;block-progression:tb;writing-mode:lr-tb;text-anchor:start;color:#000000;fill:#ffffff;fill-opacity:1;stroke:none;stroke-width:3.05620646;marker:none;visibility:visible;display:inline;overflow:visible;enable-background:accumulate;font-family:Bitstream Vera Sans;-inkscape-font-specification:Bitstream Vera Sans"
           d="m -119.9025,31.449105 c 0,28.076932 22.235792,49.498726 48.469889,49.498726 l 0,-11.088629 c -22.367167,0 -39.507529,-17.885764 -39.507529,-38.410097 l -8.96236,0 z"
           id="path3616" />
      </g>
    </g>
    <g
       id="paused">
      <rect
         y="-15"
         x="130"
         height="130"
         width="130"
         id="rect3616"
         style="fill:#49a64f;fill-opacity:0;stroke:none" />
      <g
         id="g3624"
         transform="translate(460,-119)">
        <image
           y="110"
           x="-320"
           id="image3701"
           height="120"
           width="115"
           xlink:href="data:image/png;base64,iVBORw0KGgoAAAANSUhEUgAAAHEAAAB1CAYAAAB57w7GAAAABHNCSVQICAgIfAhkiAAAAAlwSFlz AAAN1wAADdcBQiibeAAAABl0RVh0U29mdHdhcmUAd3d3Lmlua3NjYXBlLm9yZ5vuPBoAABThSURB VHic7V3tVhu5EiwgJBDYsF8PxyPycHezuwkE8gX3h6c8NTXVmjE22Jjtc3QGG3usUalarVardXB1 dYWXLJeXlwfr3uPq6uphE3XZlhy8JBANMAdv6jUAOFjl65cE7E6DWICm1/Sef17lIfyt1/QegN0G 9c22K+ASgHPQWsW/k8TBmioA8HB5ebm8wa4BujMgCngOyqG8PpRrej8BSqmAu7e/74v3l98loLsC 5lbVqQHHawLLy1F4rwUmUIN3b+VneK8Cl/fdKqBbYWIBngN3JFctb+y1g6r34r21wR28n3Jl+WGv f2IMsDIU22Tns4IYwEvAOWBejtEDmQB1VUtxlVkB9wPA9+7qJQE7AHQbYD4biGHMc/WooB0X5a29 5ucTkFMgOoAEj+WbvdbioN53v7UcOy8vLw+eC8gnB7EwWFrAvQ3lnV0VUGWlqtYWiGx4Z983uX61 q5cWoM9qAD2pYWMAOvMIHsF4J+WkuLI4I9cF0Rn4VcpdcWXhdxRMN4aeFMgnYWJDdTp4ZNc7AKdY gHUq5USuBFIZqkxcZ0xUJrIQsDsAt3K9tdcEk99TMKlin5SVGwexwb4EnoJ2BuC9lNPueoIxiDom TgHo1ukUkMrGOylfsADti5QbDEF9gzGYB/JbTzJWbhTEAsAjDMc7so4gnUk5l/cIpKpSZR8BbIHn MgWmGjiqVsk6AvcFwHVXxxt5j4Aedd8/7O5FeRIgNwJiYby46lTwFDQvDuAJ2uBNAVdJBWgCU9Uq gTzDAsjrrq7X3fvH6MFk/Xi/5e9tUr2uDWIx/hFAsu8EvZokWL905YO8VpVK9il41XgHBKe1/Z18 sukeCqiCSVZSlZ4D+NzVWTWGj9WHWHQE/h4NH2BDrFwLxAkAlX0ET4G7wBBEqtJT9I3hrKNU7rPK ga119KmOu+v4DMACDLLzFAsw3mPBMnY4gsjxW4HU8do7zMaAfDSIDQCVfVSdBIvg/SqvlYGuOpUt U66y5OdMICY/bOXC07lsZZC9x9CartiYNMhGgFxXnWrDUOXxIZV9BI7lAkMAnX3KOrcg1S3GK/+n ALdAZMOqo+DYrm75AsNOqoC6Be2aJM1dOVbqCsmj5FEgdixMKpQPpey7APBbVxREAsgH5wNTkoHh HhNek9dkOdHuJPlo1VuknqA0F3X3XprrTk2BqnF86Xd9DBtXBjFMI9g7Of4RQLLvNwC/owfyAr0V SvV5hP4Bdc6WPCdadE72HauDyIZOYCRPUXK+u6+35YioDCpgjenHSiCGcVB7pDJQwWMhgL+gH/+O 0asqWoM60b4Nhea++jV1pYEqtVKnqkp9CsTncM9RGvPUWnZW670rJo6iB7r/rwzkbBALBlYA/g7g j64QwF/RA0j1SW+KgkewOIHmlZNpgkgA6WXRcXGOYcMGdkeEgsjpjluilQXty2duNE2BCDyCkauq UzdkjjE0Yjj+/QHgT/QgKgMJICv8HeOJ9LUU94gogO6rTKqUPZz1r8bFZH2qR+m8+/1z9FMNspMa 5a3c3xe31cr2UJAY11OB4DILxBnjYALwTywAdAYedRX82TUGWUfQPltxAKlKdSnIl4GSxZcWohVI ZaSzkVrGOxI1wCn6sZ2AVu7A5PLzue5KbFyFiWkuSEPmA2o1+qFrCD4k1Se9HwTuXwCfpCgTpxhY zQ8TiNWidIuRZxiqdtZHOxE7qc5xFUTWJy1Kj5auMB4OSpkEUaYTOpaoGp0C8Aw9gKo+b9AD9g8W ILJ8Rg1gYl9SS0AbxLRM5u5CAqkrF1V9FIDkrGB9EogO6JKtc6YdTRAbapQ99BwLoJIlSgCpQgng LRYAEbC/sQCRQJKFDqAaMC31uYrvFMjqlc95VxSd4minUiBp9CQQU0iIa5Vlh5xSq3PUqRszHDMI oE8n6FLjPPCwqwwBpOr8G8DH7kogE4Bz2QfUAOqz+N8VK7+jXx/0+WkFotblAL0GOpE6pYVoD8zS Z9T10CgliIGFVDPvMLZGdRpxgSEDHcB/sADvI4C/0IP4Cb0hwxXzaux7rDXnn3Eg2Wg/u2d2trRi bHxM4z0J5DsMmZju6epZ43VKNk4xMbnVVI2SheqNIQOPkRn4EcD/sADwL/Rq1AF09VmBt86a3EPX Wb3hFUwPZ0xhjNroeh8F8rj7n6pT90qp0cbfTisyA4kgTkwplIUEUVXoqVSYVugNegD/Qg/iR9QA +oMMpg2bWhnX+3QLtTqv9KlAZYxoYyt4OtHnFOYUPRNTGIgPIZOhHS0m6hiRphS6MkF/6Pvus+zF 39AD+DeGAJKFtETVgHFD4QHAw1OH/sn9yVAdk3xepysmSY2mYGiS4T2GTHTXog4lVO0lG0cgNsZC Til0dYIMJIA6lfiGhUmu4yDB+4hejSYGDsaDbYTGd7/5IFOsqUk6UEc30AV30l3fYtFe7q1i8Q7d ZKOu26n4vFBDLDgeXmC8pMRO4VMJWqK0RtUSZaV9LLjHlgBUIZgYr2sy9oYOC853/Vn/7f5/iz5o 6g2G/ma2pRKCKzweljKSSp36KoUbNArgOXpDhgud9MZ8Qm99JgBLBm4bPBXWpRszq0XcxMLW2iS1 2zkWneECvfuRniEy8gh9HOuoXQZMtMVej5XRlXquyp+j9+hTb9MfSmuUqpQTegdQGbhzAKoEVvrq izJSn5vG2233+Qcs2kvJ4e1KN56ulBwAOPA8BZU6dVXqsTIMePJlJWUhx0L1yCQrdGDd7SqAFAFS J+5qoNygf3Z9/s9YtMtX9EHF1HK0NbR9aem7Sh1JelOZ6Cv2GrGmP3KI2q2mPZFjoDPwRQBICUAq I92pr35hHRvv0S9fKUnIRI09YuRcjApYgljEzSQQ9QdojaJ7GGXhJ/S+UALoDNyqBbqOGJDqhVHV mtqBnfhndytaq1UbK4jLZS1VqYmJbh4nED28QlnI1Qn2vpYVutNj4JQ0xki3WrUtOJwoG31xPYGo EQQD8TcqZ7eucHNFW730ZKH2QJYmgKs1287KFJDeHtRItDjV9vC29qnGSKUqiJUq1RB8jdAmC6tF XgWQVtkIwJfKQop6eTAGkpP41CY0cGipqtbT9mZw1kilsg6HQNNLw96hN04spOeBFfZVeZ8L7gWA lACku9Q8boiaibZBYqNGlusccznpJ25zmeh7DTTUkD5SrtbrhNXDGFIU2j6JjpEEkm41bZcb9MML DRxlI7Wfhkm2mSiii6K+p0K3mbFHUH2wxzEORT0O9MjvlRp1KdSqbo3zttFxkQaO2iHa7rpBZzRf TEx0y1RjMbVHsMJe0SoibN9ZSKmmHe7o1g7ONnENqBHoaqFGJlbBUG/tZuoCAvpBXJdTtJftpTFT yYSRo9pKl5zYPsDY1Zk22Y7CIFtjoofv+ZYzoJ8f6m5ajQRL64KvQVo+1rT4q0tZHm1HDHSeOGRi yGqoi5fpRrwJXU4aYuCRYK+GhZQZbPR24nDDqAAdG51AxGaJ2eXl5UFLnfpuH91yzUqmClar869R HMgUU6P+Y2Be+89Sp+lGTmevnEeBPXt4xa6I+VVbEW7e2VNUwGTOgtaY6Dt8BhNNDJnouc88Qu01 i0cFpDxxykRVqa0tctE6BWogfd+5T2rnRDK/RvG4HO/0GrOq0XK+R6S1ZbypTlOklt7AK9faU7D3 Bo2LGTjOxrSZxqPlUvtPqlO9gQIZv9ioWAqvf+2SxsfUZpRVcBi8WRX/TFWxFMqnn3uNos/eaidv o1b7j0orPCMVr1xV9HP/ybhN5rTdHBwA1IFSehMgfDFUMFX0P+ml6uCtdnKDM0oLRFcFc35I32sB /xrF22RVgpQYJBDXpXqq6GuX1MHXGbIGcjjxYQ7GcwZfL7NUwZ6LD0lVO00ZjU2MnIlpclpN2t0p MDdz0msU7/BVm1FWwWGgTtMXqz14rFjLMTCY02ziiLyXJI0slK0JPNC38ZRjYAmkrkjoDXwHkN9A K9ZylMfJ6SuSNGmvHNv8bHLTRS8YrxUTFUDPm6ZMTAnqppK1vjZxFnpbacgFMPZJp4xZkYnAWJ22 HNsPGPcs3b6VIrNGu3n2VWxLhILYysRII3PKUd5Upy0A/UbAkImeZjKtP75GUQA9+CxtWwPmtf8A yENbXdAB1Y/b+YahSiWIHhWXKjgKeN1XmchGmdpJdzypKtVDVjTsU9cecXV19dAaE6sb/ZCbMOBV o+JSZNxrM3BcjaYINo1iU42okRIpLcpK6tSj2DwmBFJBP7Ckyge612ycwUJP/O5ps6vIuDJJEZAN mxTUo0CS1qxsOvtiVvj5nkoyZnw7hJ88wDbxYGOPikvpx0a+U52fKBM91yh7BCuqvSxty3Ig946N jQROre2BTJ3GLRG6LU7b3bdC0LgE0J4npvBzZSNvxJ2uTOnBzah6covv6NkrAEXcCaIZKbVdPIk9 0Adis81nb4c4BJpbs7jHTvcQ6F7DB/Q9zne6Vrtd946NE8kMfZe177RmEkPf06jh/jGvKnGby0RP 2qpsPMAwC4QmZ9Cjg/bSyJkwZtIRS5rehFsilIWt7FKTHhtgCKRvW/ZtWc5Gz8nildZtcfvmBEgA +ik92h46HiYWpu2B5f7OtCicws59t6vudNXkAZ7Ar5XqagnkS2WjpdauAPS20EyUNGjSTusq6+TA qAEExBkpPRRE/oDudCUbPYlfyj7VTOnxEmRGyhjNEqXtoKcSAP1O66qNJ1PGtMIzKhD1qAMC6Wxk PlRmYtQ8cLPTXe2qrJA+TZ+f6USdhQqgJmdIIJbhGUnUc+M/wqQ6nubqAeM0V5rUludjpCQ7LwbI AGBK2sRn1+f3NGocCzWBk7avksQzGw9kAOIK6a5SlihaqrTKtCcywbvmRy1dc7sKZGMMTGm19bmp iWil0yJN2adWTp9Wpcp0ID2LYJq08oF0bPyAYZLyqZ3DHF/vn/JI81WlmEakMdBPJ2BudB7w4snt 7zDMA6cZuHw7eFSlQK1O3RneSnVF6t91nwXGY6MeuaA5wyurdWdYGdjXskL9eAk9atBzozNlTAIw TS3KbYIjJl5dXWmGevXeEMTPGGeYUtcaH5gpkvn9ioWH8h2WwWcvLy+jGnlKaazOqzeGSWer0+p0 LKQapTXqGYs9iV/K/xM1UyuRu7JRXXBMwKfnCrpb7a1cz1DHh3gQUQKSquRejz94CkBNbQJ9B1MG JiPmAj2APK1Oj5hge1CNEkCm0lQQ1aDhPLy5WTeCGNio0w1WIC0C6yo1QX2HHkg1nNzC06LnYhyi T521/D7HTNa3esApCYknqhhRxsdUJ7b+gSEL9ZAXz41OImhSW+ZDpUEzO4HT1OEmvtL/tfvONabj anh/jo8KINAzjt/x7c3Mfa3RXmk7mB9Qsop4bGgVYuhWqGZhpvFC8PS8SB0HOSTpERPpiCU3aCa3 zJcgFmPjIXo2piTlaQFYnQBJjXrcKu+37bOiPJLPl5T8hB4/clcBZOo0AqhZ+zVjv7JwdjLDKSYC tVP82h5SmajRWzSrCaQ2nDeUMnsXTm3zVXkFUA93IXhuidKQIYBUodXxEpPO7iRNEBtj4x3qaOa0 QqGnfMIaLYHIsXZXzk/0HOgXGLoVP2B4Up0eL8FTeni8xEcMQVQ1qukzZ7EQmMHEDkig98hQrRLI qb0F6CpTAVk12nvs1kmmXND9ICX5hB1APR8kndLzCXlKcY+Z06o56pSiaotWY9pQkzaI3GPosdD5 pPZ+BZDz0V06U9jXBauk9uloiQpAn1KsnP9nFogNteo92mNoPBTyHsMwPR6KUkWFnWG3TvdW4NLp 3sBwKqbHDephZ3780EpTCpdVmAj0DUMjJ40tDqLvr1MgOZ+kkZMsQQLobNQxkg1Q7lcI9WRHUgbq eKzhhWdyVQeHptFmm6TDXZSFbo2unZl5NoiBjUA2FigKoO+y8iMZ3mA4PmoK5TMMj6VTleqnnf6Q 36xApMrXOalmM1QQvXh0O9mnBp8yMBkyelJPeULBKg6MlZhoQHKVA5gHojY0e56G7ZGVbGCdXHt6 yXTyp+eU83ElqVJa1apKtZygdmhAnk9zoOtJdX7QmS8YjJaZ2M4FBFFWVacVI1VSmIfG7GiGQZrk Ok7S56pbBPR7+n0/VHlVENXR8Fau1UlrBM+X6XxFQs+JovrUxd4qgu1RLsSVQeQPie/SVSulAlE3 i3zFcKXfD7fia6pYZ7Jap6pKp8ZEValqnerVl8X0mXSx3KMeFMR0ThYBHK3qPNYH/CgQRdzQUYsw gejZd1lS2D8NhgMMG1uBSvvZ5xo21fQoTZN4P99oxPBCAujLSh5qUZ1OsNaKzKNBNLUKDFWrTy1c ner2gFsMI6OrsA1veP0NvSbPDTD21BBQvfq4rp3F2afhhQRL1aaf0NPMi77OSsxaTJwAEhiz0UHk A3IaQUbSMaDGhKpZB4K/pVf/u3J+p/pqVIPvEON0hwxUEPn6Wj6XnPgbAxBYX51WQLpxM8VGTujT RNpVrLNT2eNMcpBUnLFez7RHUyO0r0Phc6RTut0K3QiAwAZA1Io0zql3T0/accUG0Mm1zs38WIek ah1QlzRmt8DT8VvrSVV6g7FHScHzfOhrWaGVbARESmP60TJydMMOQSSANHZSBIEvfbXAnAKvsp7V +CJIutlFWVe5A93Y2nhoyUZBBCKQSWVV6uoGYw+JqlU9oyOtYVZAItShNYd1EG8xNMT0dXI8VJEI TxIbdHB1dbXpey4lxGtWSz+eGuSkuLpa1WiCNxhOEVogsoHZ2JpqxM/4uCuuug17amnsSeNnnxRE IOY4S8tAKTxDyzu7pmiCdUBUJnrmCmWZe4wqb9HGjZeWPDmIlCJhXcsNlooz0D0rldUKZCvU/brO SD/DogXcs6jOJM8GItCM60zekxQBp26xI9QArjomEkhl5Y9QflpR4AYL0c8Z6PysIFICmO49UbWY gJ1ylR2itk610SsXXgVYAm7gZNjG3pGtgEgpwEyAJrdbiihwb05iYnLXOTv9vQTc1sGjbBVElcIA AsYxrCmKoALPQeQ1gamApvf9uzuxYwvYIRApRVi9/t0q/p0kzqKp4t/ZGfAoOweiSgDUr+k9/7xK co4noEbO9F0DTmWnQXQpQJ37Ghiv25Wvdxk0lxcFYpJNbEJ9SYAl+T8oenj0f5zpQAAAAABJRU5E rkJggg== "
           style="opacity:0.8" />
        <path
           transform="matrix(2.9862078,0,0,3.7327597,-100.08404,-3.8378052)"
           d="m -39.521026,46.302956 c 0,6.642957 -6.731476,12.028138 -15.035172,12.028138 -8.303697,0 -15.035173,-5.385181 -15.035173,-12.028138 0,-6.642958 6.731476,-12.028139 15.035173,-12.028139 8.303696,0 15.035172,5.385181 15.035172,12.028139 z"
           sodipodi:ry="12.028138"
           sodipodi:rx="15.035172"
           sodipodi:cy="46.302956"
           sodipodi:cx="-54.556198"
           id="path3807"
           style="fill:none;stroke:#ffffff;stroke-width:3.05620646;stroke-miterlimit:4;stroke-opacity:1;stroke-dasharray:none"
           sodipodi:type="arc" />
      </g>
    </g>
  </g>
</svg>
